%YAML 1.1
%TAG !u! tag:unity3d.com,2011:
--- !u!74 &7400000
AnimationClip:
  m_ObjectHideFlags: 0
  m_CorrespondingSourceObject: {fileID: 0}
  m_PrefabInstance: {fileID: 0}
  m_PrefabAsset: {fileID: 0}
  m_Name: SchoolGirlGetUp
  serializedVersion: 6
  m_Legacy: 0
  m_Compressed: 0
  m_UseHighQualityCurve: 1
  m_RotationCurves: []
  m_CompressedRotationCurves: []
  m_EulerCurves: []
  m_PositionCurves: []
  m_ScaleCurves: []
  m_FloatCurves:
  - curve:
      serializedVersion: 2
      m_Curve:
      - serializedVersion: 3
        time: 0
        value: 0
        inSlope: Infinity
        outSlope: Infinity
        tangentMode: 103
        weightedMode: 0
        inWeight: 0
        outWeight: 0
      m_PreInfinity: 2
      m_PostInfinity: 2
      m_RotationOrder: 4
    attribute: m_IsActive
    path: Hurt - Box
    classID: 1
    script: {fileID: 0}
  m_PPtrCurves:
  - curve:
    - time: 0
      value: {fileID: 21300000, guid: c1ff54fa1574474429b021e12b506385, type: 3}
    - time: 0.083333336
      value: {fileID: 21300000, guid: e4e125c9330381a41a8811d3d28d201c, type: 3}
    - time: 0.16666667
      value: {fileID: 21300000, guid: 450a8c7a214f1c849bb8970dff5b1730, type: 3}
    - time: 0.25
      value: {fileID: 21300000, guid: f7bbe4e567e225e47a371e01b625ba84, type: 3}
    - time: 0.33333334
      value: {fileID: 21300000, guid: 02680199293914b4a8ed2ab7a2d179dd, type: 3}
    - time: 0.41666666
      value: {fileID: 21300000, guid: 9df8ba8108c373f46819e62730c35d9a, type: 3}
    - time: 0.5
      value: {fileID: 21300000, guid: 7c114beb0fb0c984293e1a4f1ee6aac1, type: 3}
    - time: 0.5833333
      value: {fileID: 21300000, guid: afbc09b99bf17514796567c40c6dd2d3, type: 3}
    - time: 0.6666667
      value: {fileID: 21300000, guid: f0b165424d4fd9044ab347549dfada88, type: 3}
    - time: 0.75
      value: {fileID: 21300000, guid: 1686d0fba0a0ab44385a0cfd13091d00, type: 3}
    attribute: m_Sprite
    path: SpriteRenderer - Layer 1
    classID: 212
    script: {fileID: 0}
  m_SampleRate: 60
  m_WrapMode: 0
  m_Bounds:
    m_Center: {x: 0, y: 0, z: 0}
    m_Extent: {x: 0, y: 0, z: 0}
  m_ClipBindingConstant:
    genericBindings:
    - serializedVersion: 2
      path: 1944804632
      attribute: 2086281974
      script: {fileID: 0}
      typeID: 1
      customType: 0
      isPPtrCurve: 0
    - serializedVersion: 2
      path: 2175903578
      attribute: 0
      script: {fileID: 0}
      typeID: 212
      customType: 23
      isPPtrCurve: 1
    pptrCurveMapping:
    - {fileID: 21300000, guid: c1ff54fa1574474429b021e12b506385, type: 3}
    - {fileID: 21300000, guid: e4e125c9330381a41a8811d3d28d201c, type: 3}
    - {fileID: 21300000, guid: 450a8c7a214f1c849bb8970dff5b1730, type: 3}
    - {fileID: 21300000, guid: f7bbe4e567e225e47a371e01b625ba84, type: 3}
    - {fileID: 21300000, guid: 02680199293914b4a8ed2ab7a2d179dd, type: 3}
    - {fileID: 21300000, guid: 9df8ba8108c373f46819e62730c35d9a, type: 3}
    - {fileID: 21300000, guid: 7c114beb0fb0c984293e1a4f1ee6aac1, type: 3}
    - {fileID: 21300000, guid: afbc09b99bf17514796567c40c6dd2d3, type: 3}
    - {fileID: 21300000, guid: f0b165424d4fd9044ab347549dfada88, type: 3}
    - {fileID: 21300000, guid: 1686d0fba0a0ab44385a0cfd13091d00, type: 3}
  m_AnimationClipSettings:
    serializedVersion: 2
    m_AdditiveReferencePoseClip: {fileID: 0}
    m_AdditiveReferencePoseTime: 0
    m_StartTime: 0
    m_StopTime: 0.76666665
    m_OrientationOffsetY: 0
    m_Level: 0
    m_CycleOffset: 0
    m_HasAdditiveReferencePose: 0
    m_LoopTime: 0
    m_LoopBlend: 0
    m_LoopBlendOrientation: 0
    m_LoopBlendPositionY: 0
    m_LoopBlendPositionXZ: 0
    m_KeepOriginalOrientation: 0
    m_KeepOriginalPositionY: 1
    m_KeepOriginalPositionXZ: 0
    m_HeightFromFeet: 0
    m_Mirror: 0
  m_EditorCurves:
  - curve:
      serializedVersion: 2
      m_Curve:
      - serializedVersion: 3
        time: 0
        value: 0
        inSlope: Infinity
        outSlope: Infinity
        tangentMode: 103
        weightedMode: 0
        inWeight: 0
        outWeight: 0
      m_PreInfinity: 2
      m_PostInfinity: 2
      m_RotationOrder: 4
    attribute: m_IsActive
    path: Hurt - Box
    classID: 1
    script: {fileID: 0}
  m_EulerEditorCurves: []
  m_HasGenericRootTransform: 0
  m_HasMotionFloatCurves: 0
  m_Events:
  - time: 0.5833333
    functionName: OpenAgent
    data: 
    objectReferenceParameter: {fileID: 0}
    floatParameter: 0
    intParameter: 0
    messageOptions: 0
